<svg width="181" height="208" viewBox="0 0 181 208" fill="none" xmlns="http://www.w3.org/2000/svg">
<path d="M180.197 51.8458C180.197 86.5188 180.197 121.05 180.197 155.688C150.174 173.021 120.142 190.364 90.0905 207.713C83.9373 204.16 77.8259 200.63 71.7146 197.106C58.404 189.427 45.0903 181.749 31.7766 174.07C21.6231 168.213 11.4729 162.353 1.30659 156.515C0.373312 155.977 0 155.33 0 154.214C0.0354003 120.587 0.0354003 86.9597 0.00965463 53.3326C0.00965463 52.1805 0.347567 51.5111 1.38383 50.9157C16.7057 42.1107 32.0019 33.251 47.3077 24.417C61.2103 16.3908 75.1226 8.38067 89.0156 0.341583C89.8105 -0.118621 90.3834 -0.115402 91.204 0.360892C105.47 8.62203 119.762 16.8381 134.045 25.0767C149.112 33.7723 164.174 42.4808 179.235 51.1861C179.554 51.3695 179.85 51.6044 180.197 51.8458ZM5.80887 152.379C33.9328 168.618 62.002 184.829 90.0905 201.048C118.214 184.809 146.245 168.625 174.272 152.441C174.305 151.987 174.353 151.617 174.353 151.25C174.353 119.715 174.346 88.1761 174.372 56.6409C174.372 55.4727 173.996 54.8194 172.982 54.2369C162.027 47.9485 151.108 41.6055 140.169 35.2913C126.212 27.2297 112.248 19.181 98.2873 11.1322C95.5583 9.55853 92.8228 7.99126 90.1292 6.44652C89.8299 6.59456 89.6335 6.67824 89.4501 6.78444C77.9 13.4397 66.3466 20.0917 54.8029 26.7599C39.0433 35.861 23.2998 44.9846 7.52095 54.0535C6.25942 54.7776 5.76703 55.566 5.77025 57.0593C5.81852 88.2212 5.80565 119.383 5.80565 150.542C5.80887 151.124 5.80887 151.71 5.80887 152.379Z" fill="#7C7C7C"/>
<path d="M88.5405 139.137C88.5405 146.252 88.5405 153.361 88.5405 160.725C76.2212 153.69 64.0757 146.758 51.7339 139.71C51.7339 149.519 51.7339 159.061 51.7339 168.812C48.9823 167.254 46.3852 165.8 43.801 164.323C33.4899 158.427 23.1916 152.499 12.8515 146.651C11.6672 145.982 11.2327 145.284 11.2263 143.916C11.1716 127.184 11.0461 110.453 10.9367 93.7214C10.8787 84.659 10.8111 75.5965 10.75 66.534C10.75 66.3216 10.75 66.1092 10.75 65.5557C24.3212 73.3083 37.7089 80.9548 51.161 88.6367C51.2962 98.3975 51.4346 108.142 51.573 118.003C63.8665 125.031 76.1729 132.066 88.5405 139.137Z" fill="#7C7C7C"/>
<path d="M168.734 59.6341C142.962 73.7299 117.297 87.7677 91.6256 101.806C91.1782 100.65 90.9948 85.1288 91.3778 80.8807C94.3321 79.3392 97.354 77.7591 100.379 76.1789C110.716 70.7852 121.053 65.3883 131.39 59.9945C137.508 56.8053 143.632 53.6257 149.743 50.4268C150.413 50.076 150.985 49.9924 151.697 50.3753C157.11 53.2975 162.542 56.1842 167.965 59.087C168.193 59.2157 168.393 59.3927 168.734 59.6341Z" fill="#7C7C7C"/>
<path d="M91.3584 75.2675C91.323 74.6078 91.2909 74.2924 91.2909 73.9738C91.2876 67.65 91.3134 61.3231 91.2619 54.9993C91.2522 53.9276 91.6256 53.3612 92.5492 52.8785C103.086 47.4075 113.606 41.9076 124.123 36.3948C124.953 35.9604 125.642 35.8799 126.501 36.3787C132.571 39.8834 138.669 43.3397 144.755 46.8154C145.016 46.9634 145.238 47.179 145.662 47.5041C127.538 56.7725 109.567 65.9605 91.3584 75.2675Z" fill="#7C7C7C"/>
<path d="M91.4424 17.1116C101.177 22.5697 110.678 27.8958 120.522 33.415C110.694 38.5191 101.19 43.4526 91.4424 48.5148C91.4424 37.9527 91.4424 27.6834 91.4424 17.1116Z" fill="#7C7C7C"/>
<path d="M169.137 66.0347C169.183 67.0355 169.224 67.5601 169.224 68.0847C169.228 73.3947 169.25 78.7048 169.221 84.0148C169.121 104.016 168.996 124.02 168.919 144.022C168.915 145.055 168.645 145.663 167.709 146.191C160.622 150.194 153.568 154.259 146.501 158.307C141.11 161.393 135.723 164.483 130.332 167.566C129.872 167.83 129.389 168.045 128.627 168.432C128.627 163.511 128.627 158.777 128.627 154.043C128.627 149.299 128.627 144.556 128.627 139.484C122.261 142.879 116.237 146.49 110.128 149.949C103.998 153.422 97.8895 156.933 91.6301 160.505C91.6301 156.186 91.6301 152.064 91.6301 147.941C91.6301 145.528 91.6719 143.114 91.6108 140.7C91.585 139.719 91.9101 139.168 92.7822 138.676C100.29 134.441 107.769 130.151 115.258 125.877C119.345 123.544 123.413 121.182 127.526 118.894C128.543 118.327 128.929 117.652 128.926 116.48C128.9 107.846 128.971 99.2112 128.929 90.5735C128.923 89.3216 129.312 88.6587 130.397 88.0601C136.292 84.8 142.156 81.4788 148.003 78.1351C153.703 74.8751 159.37 71.5539 165.06 68.2745C166.289 67.5601 167.551 66.9036 169.137 66.0347Z" fill="#7C7C7C"/>
<path d="M11.7441 59.5669C13.6429 58.5435 15.281 57.6585 16.9255 56.7799C19.5998 55.3511 22.2773 53.935 24.9517 52.5062C26.0845 51.9011 27.2076 51.28 28.3308 50.6589C29.0388 50.2663 29.7082 50.247 30.4516 50.6428C36.8236 54.0316 43.1957 57.4107 49.5871 60.7609C53.3266 62.7208 57.1112 64.5905 60.854 66.5408C67.358 69.9295 73.8363 73.3634 80.337 76.7586C83.0757 78.1875 85.8402 79.5681 88.521 80.9358C88.9264 82.7992 88.8363 100.242 88.3826 101.494C62.9201 87.5621 37.4769 73.6434 11.7441 59.5669Z" fill="#7C7C7C"/>
<path d="M88.4016 74.8305C70.5631 65.7101 52.8372 56.6508 34.8828 47.4725C35.697 46.9511 36.3632 46.478 37.0712 46.0758C41.3932 43.6106 45.725 41.1648 50.0502 38.7093C51.2088 38.0528 52.3706 37.3963 53.5098 36.7044C54.3465 36.1959 55.0771 36.1058 56.0264 36.611C63.3929 40.5244 70.7948 44.3798 78.1902 48.2448C81.1767 49.8057 84.1536 51.3826 87.1787 52.863C88.26 53.3908 88.6011 54.0988 88.5979 55.2573C88.5786 61.4717 88.6269 67.686 88.643 73.9036C88.643 74.1482 88.5207 74.3928 88.4016 74.8305Z" fill="#7C7C7C"/>
<path d="M88.3985 48.1161C78.9241 43.189 69.6975 38.3906 60.1201 33.4088C69.5688 28.0312 78.8308 22.9207 88.2827 17.5978C88.4307 18.2092 88.627 18.634 88.627 19.0588C88.5884 28.2211 88.5273 37.3801 88.4661 46.5423C88.4629 46.9671 88.4307 47.3887 88.3985 48.1161Z" fill="#7C7C7C"/>
</svg>